{
  "name": "MkDocs",
  "description": "Build your static website with [MkDocs](https://www.mkdocs.org/)",
  "template_path": "templates/gitlab-ci-mkdocs.yml",
  "kind": "build",
  "prefix": "mkd",
  "job_prefix": "mkdocs",
  "is_component": true,
  "variables": [
    {
      "name": "MKD_IMAGE",
      "description": "The Docker image used to run MkDocs",
      "default": "docker.io/squidfunk/mkdocs-material:latest"
    },
    {
      "name": "MKD_BUILD_ARGS",
      "description": "Arguments used by the build job",
      "advanced": true
    },
    {
      "name": "MKD_WORKSPACE_DIR",
      "description": "MkDocs sources directory",
      "default": ".",
      "advanced": true
    },
    {
      "name": "MKD_SITE_DIR",
      "description": "MkDocs generated site directory (relative to `$MKD_WORKSPACE_DIR`)",
      "default": "site",
      "advanced": true
    },
    {
      "name": "MKD_REQUIREMENTS_FILE",
      "description": "Requirements file. If the file is not found in the repository, requirements are read from the `MKD_REQUIREMENTS` variable",
      "default": "requirements.txt",
      "advanced": true
    },
    {
      "name": "MKD_REQUIREMENTS",
      "description": "Space separated requirements (ignored if a requirement file is found)",
      "default": "mkdocs",
      "advanced": true
    },
    {
      "name": "MKD_PREBUILD_SCRIPT",
      "description": "Pre-build hook script",
      "default": "mkdocs-pre-build.sh",
      "advanced": true
    },
    {
      "name": "PIP_OPTS",
      "description": "pip extra [options](https://pip.pypa.io/en/stable/cli/pip/#general-options)",
      "advanced": true
    }
  ],
  "features": [
    {
      "id": "lychee",
      "name": "lychee",
      "description": "Checks broken links and emails with [lychee](https://github.com/lycheeverse/lychee)",
      "enable_with": "MKD_LYCHEE_ENABLED",
      "variables": [
        {
          "name": "MKD_LYCHEE_IMAGE",
          "description": "The Docker image used to run [lychee](https://github.com/lycheeverse/lychee)",
          "default": "docker.io/lycheeverse/lychee:latest",
          "advanced": true
        },
        {
          "name": "MKD_LYCHEE_ARGS",
          "description": "[lychee arguments](https://github.com/lycheeverse/lychee#commandline-parameters) to execute",
          "default": "docs/"
        }
      ]
    }
  ],
  "variants": [
    {
      "id": "pages",
      "name": "GitLab Pages",
      "description": "Adds a job to publish the generated site to GitLab pages",
      "template_path": "templates/gitlab-ci-mkdocs-pages.yml"
    }
  ]
}
